…
goalie can be installed using
`remotes::install_github("caldwellst/goalie")`

## Usage

To begin, we can use `gho_overview()` to begin to explore all data
available in the GHO.

``` r
library(goalie)

sdg_overview()
#> # A tibble: 10,709 x 12
#>   goal  goal_title goal_description target_descript… target_title target
#>   <chr> <chr>      <chr>            <chr>            <chr>        <chr> 
#> 1 1     End pover… Goal 1 calls fo… By 2030, eradic… By 2030, er… 1.1   
#> 2 1     End pover… Goal 1 calls fo… By 2030, eradic… By 2030, er… 1.1   
#> 3 1     End pover… Goal 1 calls fo… By 2030, eradic… By 2030, er… 1.1   
#> 4 1     End pover… Goal 1 calls fo… By 2030, eradic… By 2030, er… 1.1   
#> 5 1     End pover… Goal 1 calls fo… By 2030, eradic… By 2030, er… 1.1   
#> # … with 10,704 more rows, and 6 more variables: indicator_description <chr>,
#> #   indicator_tier <chr>, indicator <chr>, series_description <chr>,
#> #   series_release <chr>, series <chr>
```

If we want the data for `SI_POV_DAY1`, we could now just quickly access
the data frame using `sdg_data()`.

``` r
sdg_data("SI_POV_DAY1")
#> # A tibble: 2,053 x 20
#>    Goal Target Indicator SeriesCode SeriesDescripti… GeoAreaCode GeoAreaName
#>   <dbl>  <dbl> <chr>     <chr>      <chr>                  <dbl> <chr>      
#> 1     1    1.1 1.1.1     SI_POV_DA… Proportion of p…           1 World      
#> 2     1    1.1 1.1.1     SI_POV_DA… Proportion of p…           1 World      
#> 3     1    1.1 1.1.1     SI_POV_DA… Proportion of p…           1 World      
#> 4     1    1.1 1.1.1     SI_POV_DA… Proportion of p…           1 World      
#> 5     1    1.1 1.1.1     SI_POV_DA… Proportion of p…           1 World      
#> # … with 2,048 more rows, and 13 more variables: TimePeriod <dbl>, Value <dbl>,
#> #   Time_Detail <dbl>, TimeCoverage <lgl>, UpperBound <lgl>, LowerBound <lgl>,
#> #   BasePeriod <lgl>, Source <chr>, GeoInfoUrl <lgl>, FootNote <chr>,
#> #   Nature <chr>, Reporting_Type <chr>, Units <chr>
```
…
Let’s say we want to get data for a specific country, then we could look
up the M49 code using the table available through the API.

``` r
sdg_geoareas()
#> # A tibble: 370 x 2
#>   geoAreaCode geoAreaName   
#>   <chr>       <chr>         
#> 1 4           Afghanistan   
#> 2 248         Åland Islands 
#> 3 8           Albania       
#> 4 12          Algeria       
#> 5 16          American Samoa
#> # … with 365 more rows
```

We can then even check what data is available for a specific country,
say Angola.

``` r
sdg_geoarea_data(24)
#> # A tibble: 389 x 12
#>   goal  goal_title goal_description target_descript… target_title target
#>   <chr> <chr>      <chr>            <chr>            <chr>        <chr> 
#> 1 1     End pover… Goal 1 calls fo… By 2030, eradic… By 2030, er… 1.1   
#> 2 1     End pover… Goal 1 calls fo… By 2030, eradic… By 2030, er… 1.1   
#> 3 1     End pover… Goal 1 calls fo… By 2030, reduce… By 2030, re… 1.2   
#> 4 1     End pover… Goal 1 calls fo… By 2030, reduce… By 2030, re… 1.2   
#> 5 1     End pover… Goal 1 calls fo… Implement natio… Implement n… 1.3   
#> # … with 384 more rows, and 6 more variables: indicator_description <chr>,
#> #   indicator_tier <chr>, indicator <chr>, series_description <chr>,
#> #   series_release <chr>, series <chr>
```

And we can get data from the SDG for multiple series in one call, with
the output data frames already merged together.

``` r
sdg_data(c("SI_POV_DAY1", "SI_POV_EMP1", "SI_POV_NAHC"))
#> # A tibble: 12,956 x 23
#>    Goal Target Indicator SeriesCode SeriesDescripti… GeoAreaCode GeoAreaName
#>   <dbl>  <dbl> <chr>     <chr>      <chr>                  <dbl> <chr>      
#> 1     1    1.1 1.1.1     SI_POV_DA… Proportion of p…           1 World      
#> 2     1    1.1 1.1.1     SI_POV_DA… Proportion of p…           1 World      
#> 3     1    1.1 1.1.1     SI_POV_DA… Proportion of p…           1 World      
#> 4     1    1.1 1.1.1     SI_POV_DA… Proportion of p…           1 World      
#> 5     1    1.1 1.1.1     SI_POV_DA… Proportion of p…           1 World      
#> # … with 12,951 more rows, and 16 more variables: TimePeriod <dbl>,
#> #   Value <dbl>, Time_Detail <dbl>, TimeCoverage <lgl>, UpperBound <lgl>,
#> #   LowerBound <lgl>, BasePeriod <lgl>, Source <chr>, GeoInfoUrl <lgl>,
#> #   FootNote <chr>, Age <chr>, Location <chr>, Nature <chr>,
#> #   Reporting_Type <chr>, Sex <chr>, Units <chr>
```
…
``` r
library(dplyr)
library(stringr)

sdg_geoarea_data(24) %>%
  filter(str_detect(str_to_lower(series_description), "poverty")) %>%
  pull(series) %>%
  sdg_data(area_codes = 24, 1990, 2005)
#> # A tibble: 16 x 23
#>    Goal Target Indicator SeriesCode SeriesDescripti… GeoAreaCode GeoAreaName
#>   <dbl> <chr>  <chr>     <chr>      <chr>                  <dbl> <chr>      
#> 1     1 1.1    1.1.1     SI_POV_DA… Proportion of p…          24 Angola     
#> 2     1 1.1    1.1.1     SI_POV_EM… Employed popula…          24 Angola     
#> 3     1 1.1    1.1.1     SI_POV_EM… Employed popula…          24 Angola     
#> 4     1 1.1    1.1.1     SI_POV_EM… Employed popula…          24 Angola     
#> 5     1 1.1    1.1.1     SI_POV_EM… Employed popula…          24 Angola     
#> # … with 11 more rows, and 16 more variables: TimePeriod <dbl>, Value <dbl>,
#> #   Time_Detail <dbl>, TimeCoverage <lgl>, UpperBound <lgl>, LowerBound <lgl>,
#> #   BasePeriod <lgl>, Source <chr>, GeoInfoUrl <lgl>, FootNote <chr>,
#> #   Age <chr>, Location <lgl>, Nature <chr>, Reporting_Type <chr>, Sex <chr>,
#> #   Units <chr>
```
…
